^D:\LEARNING\IA\VSPROJECTS\TEST\TEST\DEBUG\HOST.OBJ|D:\LEARNING\IA\VSPROJECTS\TEST\TEST\DEBUG\MYMSG.PB.OBJ|D:\LEARNING\IA\VSPROJECTS\TEST\TEST\DEBUG\WINHOST.OBJ
D:\LEARNING\IA\VSPROJECTS\TEST\DEBUG\WIN_HOST.ILK
D:\LEARNING\IA\VSPROJECTS\TEST\DEBUG\WIN_HOST.EXE
D:\LEARNING\IA\VSPROJECTS\TEST\DEBUG\WIN_HOST.PDB
